<?xml version="1.0" encoding="utf-8"?>
<!-- Generator: Adobe Illustrator 24.0.2, SVG Export Plug-In . SVG Version: 6.00 Build 0)  -->
<svg version="1.1" id="Isolation_Mode" xmlns="http://www.w3.org/2000/svg" xmlns:xlink="http://www.w3.org/1999/xlink" x="0px"
	 y="0px" viewBox="0 0 214.3 247" style="enable-background:new 0 0 214.3 247;" xml:space="preserve">
<style type="text/css">
	.st0{fill:#FFFFFF;}
</style>
<path class="st0" d="M199.6,161.4c-2.7,0-5.2,0.7-7.4,2l-22.7-39.3l22.7-39.3c2.2,1.3,4.7,2,7.4,2c8.1,0,14.7-6.6,14.7-14.7
	c0-8.1-6.6-14.7-14.7-14.7s-14.7,6.6-14.7,14.7h-45.3l-22.7-39.3c4.4-2.5,7.4-7.3,7.4-12.7c0-8.1-6.6-14.7-14.7-14.7
	c-8.1,0-14.7,6.6-14.7,14.7c0,5.4,3,10.2,7.4,12.7L79.5,72.1H34.1c0-8.1-6.6-14.7-14.7-14.7c-8.1,0-14.7,6.6-14.7,14.7
	c0,8.1,6.6,14.7,14.7,14.7c2.7,0,5.2-0.7,7.4-2l22.7,39.3l-22.7,39.3c-2.2-1.3-4.7-2-7.4-2c-8.1,0-14.7,6.6-14.7,14.7
	c0,8.1,6.6,14.7,14.7,14.7c8.1,0,14.7-6.6,14.7-14.7h45.3l22.7,39.3c-4.4,2.5-7.4,7.3-7.4,12.7c0,8.1,6.6,14.7,14.7,14.7
	c8.1,0,14.7-6.6,14.7-14.7c0-5.4-3-10.2-7.4-12.7l22.7-39.3h45.3c0,8.1,6.6,14.7,14.7,14.7s14.7-6.6,14.7-14.7
	C214.3,168,207.7,161.4,199.6,161.4z"/>
</svg>
